<svg width="45" height="39" viewBox="0 0 45 39" fill="none" xmlns="http://www.w3.org/2000/svg">
<path d="M23.418 0.320206C23.1518 0.112694 22.824 0 22.4865 0C22.149 0 21.8212 0.112694 21.555 0.320206L0 17.1277L1.8645 19.4857L4.5 17.4307V35.9992C4.50159 36.7944 4.81817 37.5565 5.38043 38.1188C5.9427 38.681 6.70484 38.9976 7.5 38.9992H37.5C38.2952 38.9976 39.0573 38.681 39.6196 38.1188C40.1818 37.5565 40.4984 36.7944 40.5 35.9992V17.4442L43.1355 19.4992L45 17.1412L23.418 0.320206ZM25.5 35.9992H19.5V23.9992H25.5V35.9992ZM28.5 35.9992V23.9992C28.4992 23.2038 28.1829 22.4412 27.6204 21.8788C27.058 21.3163 26.2954 21 25.5 20.9992H19.5C18.7046 21 17.942 21.3163 17.3796 21.8788C16.8171 22.4412 16.5008 23.2038 16.5 23.9992V35.9992H7.5V15.0922L22.5 3.40721L37.5 15.1072V35.9992H28.5Z" fill="black"/>
</svg>
