<svg width="42" height="44" viewBox="0 0 42 44" fill="none" xmlns="http://www.w3.org/2000/svg">
<path d="M36.23 24.0001C36.3171 23.3369 36.3639 22.669 36.37 22.0001C36.3639 21.3312 36.3171 20.6633 36.23 20.0001L40.56 16.6101C40.7555 16.4607 40.8891 16.2445 40.9353 16.0028C40.9814 15.7611 40.9368 15.5109 40.81 15.3001L36.71 8.19007C36.5912 7.9768 36.3986 7.81434 36.1683 7.73329C35.9381 7.65224 35.6861 7.65821 35.46 7.75007L30.35 9.81007C29.2867 8.99855 28.1239 8.32643 26.89 7.81007L26.12 2.38007C26.086 2.13979 25.9659 1.92006 25.7819 1.76183C25.5979 1.60361 25.3626 1.51768 25.12 1.52007H16.9C16.6573 1.51768 16.4221 1.60361 16.2381 1.76183C16.0541 1.92006 15.934 2.13979 15.9 2.38007L15.13 7.81007C13.8945 8.32321 12.7313 8.99557 11.67 9.81007L6.53999 7.75007C6.31384 7.65821 6.0619 7.65224 5.83165 7.73329C5.6014 7.81434 5.40874 7.9768 5.28999 8.19007L1.18999 15.3001C1.0632 15.5109 1.0186 15.7611 1.06473 16.0028C1.11085 16.2445 1.24446 16.4607 1.43999 16.6101L5.75999 20.0001C5.67322 20.6633 5.62647 21.3312 5.61999 22.0001C5.62612 22.669 5.67288 23.3369 5.75999 24.0001L1.43999 27.3901C1.24446 27.5394 1.11085 27.7556 1.06473 27.9973C1.0186 28.239 1.0632 28.4892 1.18999 28.7001L5.28999 35.8101C5.40874 36.0233 5.6014 36.1858 5.83165 36.2668C6.0619 36.3479 6.31384 36.3419 6.53999 36.2501L11.65 34.1901C12.7133 35.0016 13.8761 35.6737 15.11 36.1901L15.88 41.6201C15.914 41.8603 16.0341 42.0801 16.2181 42.2383C16.4021 42.3965 16.6373 42.4825 16.88 42.4801H25.08C25.3226 42.4825 25.5579 42.3965 25.7419 42.2383C25.9259 42.0801 26.046 41.8603 26.08 41.6201L26.85 36.1901C28.0855 35.6769 29.2487 35.0046 30.31 34.1901L35.42 36.2501C35.6461 36.3419 35.8981 36.3479 36.1283 36.2668C36.3586 36.1858 36.5512 36.0233 36.67 35.8101L40.77 28.7001C40.8968 28.4892 40.9414 28.239 40.8953 27.9973C40.8491 27.7556 40.7155 27.5394 40.52 27.3901L36.23 24.0001ZM21 29.1801C19.5795 29.182 18.1903 28.7626 17.0083 27.9749C15.8262 27.1871 14.9044 26.0665 14.3594 24.7547C13.8144 23.4429 13.6708 21.9989 13.9467 20.6055C14.2226 19.212 14.9057 17.9317 15.9094 16.9266C16.9132 15.9214 18.1925 15.2366 19.5856 14.9588C20.9786 14.6809 22.4228 14.8225 23.7353 15.3657C25.0479 15.9088 26.1699 16.8291 26.9592 18.01C27.7486 19.191 28.17 20.5796 28.17 22.0001C28.1713 22.9425 27.9868 23.8759 27.6271 24.747C27.2673 25.618 26.7394 26.4096 26.0735 27.0765C25.4076 27.7433 24.6167 28.2724 23.7461 28.6333C22.8756 28.9943 21.9424 29.1801 21 29.1801V29.1801Z" stroke="black" stroke-width="2" stroke-linecap="round" stroke-linejoin="round"/>
</svg>
